{
  "workspaces": {
    "Конттрольная по Электротехнике 3": {
      "main": {
        "id": "2a343d2ebbe96a63",
        "type": "split",
        "children": [
          {
            "id": "7401004957de76ac",
            "type": "leaf",
            "dimension": 50.127877237851656,
            "state": {
              "type": "markdown",
              "state": {
                "file": "кр3_электротехника.md",
                "mode": "preview",
                "source": false
              }
            }
          },
          {
            "id": "8e640b5b2d4b6d1e",
            "type": "split",
            "dimension": 49.87212276214834,
            "children": [
              {
                "id": "ec03a2a7e1098a93",
                "type": "leaf",
                "state": {
                  "type": "markdown",
                  "state": {
                    "file": "кр3_электротехника.md",
                    "mode": "preview",
                    "source": false
                  }
                }
              },
              {
                "id": "adbecd16869d4ff7",
                "type": "leaf",
                "state": {
                  "type": "markdown",
                  "state": {
                    "file": "кр3_электротехника.md",
                    "mode": "preview",
                    "source": false
                  }
                }
              }
            ],
            "direction": "horizontal"
          }
        ],
        "direction": "vertical"
      },
      "left": {
        "id": "293390a2b5cbedae",
        "type": "split",
        "children": [
          {
            "id": "7623fa7587c1322a",
            "type": "tabs",
            "children": [
              {
                "id": "4dfc65e1048b5bd4",
                "type": "leaf",
                "state": {
                  "type": "file-explorer",
                  "state": {}
                }
              },
              {
                "id": "c0e10670230f4fc4",
                "type": "leaf",
                "state": {
                  "type": "search",
                  "state": {
                    "query": "",
                    "matchingCase": false,
                    "explainSearch": false,
                    "collapseAll": false,
                    "extraContext": false,
                    "sortOrder": "alphabetical"
                  }
                }
              },
              {
                "id": "6edb398775bebaea",
                "type": "leaf",
                "state": {
                  "type": "VIEW_TYPE_LONGFORM_EXPLORER",
                  "state": {}
                }
              }
            ]
          }
        ],
        "direction": "horizontal",
        "width": 300,
        "collapsed": true
      },
      "right": {
        "id": "3e88c2594a67c5ef",
        "type": "split",
        "children": [
          {
            "id": "b8b9148e48d794b1",
            "type": "tabs",
            "children": [
              {
                "id": "c6c6fa28fef2ec52",
                "type": "leaf",
                "state": {
                  "type": "backlink",
                  "state": {
                    "file": "кр3_электротехника.md",
                    "collapseAll": false,
                    "extraContext": false,
                    "sortOrder": "alphabetical",
                    "showSearch": false,
                    "searchQuery": "",
                    "backlinkCollapsed": false,
                    "unlinkedCollapsed": true
                  }
                }
              },
              {
                "id": "7be9cf240879bbdb",
                "type": "leaf",
                "state": {
                  "type": "outgoing-link",
                  "state": {
                    "file": "кр3_электротехника.md",
                    "linksCollapsed": false,
                    "unlinkedCollapsed": true
                  }
                }
              },
              {
                "id": "2003463567be70c0",
                "type": "leaf",
                "state": {
                  "type": "tag",
                  "state": {
                    "sortOrder": "frequency",
                    "useHierarchy": true
                  }
                }
              },
              {
                "id": "545b6206a1ebaed3",
                "type": "leaf",
                "state": {
                  "type": "outline",
                  "state": {
                    "file": "кр3_электротехника.md"
                  }
                }
              },
              {
                "id": "f207b3d99e2260ad",
                "type": "leaf",
                "state": {
                  "type": "reminder-list",
                  "state": {}
                }
              },
              {
                "id": "e3e54b30ee406b7a",
                "type": "leaf",
                "state": {
                  "type": "graph-analysis",
                  "state": {}
                }
              }
            ]
          }
        ],
        "direction": "horizontal",
        "width": 300,
        "collapsed": true
      },
      "floating": {
        "id": "76d43347013fdb6f",
        "type": "floating",
        "children": [
          {
            "id": "fb39e83346d959be",
            "type": "window",
            "children": [
              {
                "id": "f1f4a8000ad06537",
                "type": "leaf",
                "state": {
                  "type": "markdown",
                  "state": {
                    "file": "Лекция по электротехнике 2022-09-22.md",
                    "mode": "preview",
                    "source": false
                  }
                }
              }
            ],
            "direction": "vertical",
            "x": 604,
            "y": 253,
            "width": 922,
            "height": 600,
            "maximize": false,
            "zoom": 0
          }
        ]
      },
      "active": "ec03a2a7e1098a93"
    },
    "Трекер ДЗ": {
      "main": {
        "id": "5ae26ce8e2b562c7",
        "type": "split",
        "children": [
          {
            "id": "1861a15bad908535",
            "type": "tabs",
            "children": [
              {
                "id": "7e029e3749972bdf",
                "type": "leaf",
                "state": {
                  "type": "markdown",
                  "state": {
                    "file": "Трекер дз типа Dataview.md",
                    "mode": "preview",
                    "source": false
                  }
                }
              }
            ]
          }
        ],
        "direction": "vertical"
      },
      "left": {
        "id": "61229c666afdf99a",
        "type": "split",
        "children": [
          {
            "id": "5955efbc782b3e55",
            "type": "tabs",
            "children": [
              {
                "id": "b9e33b19b33c05ac",
                "type": "leaf",
                "state": {
                  "type": "file-explorer",
                  "state": {
                    "sortOrder": "alphabetical"
                  }
                }
              },
              {
                "id": "bca170b0cca2f811",
                "type": "leaf",
                "state": {
                  "type": "search",
                  "state": {
                    "query": "",
                    "matchingCase": false,
                    "explainSearch": false,
                    "collapseAll": false,
                    "extraContext": false,
                    "sortOrder": "alphabetical"
                  }
                }
              },
              {
                "id": "229efc9f9b61c200",
                "type": "leaf",
                "state": {
                  "type": "VIEW_TYPE_LONGFORM_EXPLORER",
                  "state": {}
                }
              }
            ]
          }
        ],
        "direction": "horizontal",
        "width": 300,
        "collapsed": true
      },
      "right": {
        "id": "5e788a432895cb8f",
        "type": "split",
        "children": [
          {
            "id": "fc7df006d817519b",
            "type": "tabs",
            "children": [
              {
                "id": "4b685679d6b99039",
                "type": "leaf",
                "state": {
                  "type": "backlink",
                  "state": {
                    "file": "Трекер дз типа Dataview.md",
                    "collapseAll": false,
                    "extraContext": false,
                    "sortOrder": "alphabetical",
                    "showSearch": false,
                    "searchQuery": "",
                    "backlinkCollapsed": false,
                    "unlinkedCollapsed": true
                  }
                }
              },
              {
                "id": "edb2972efb67f490",
                "type": "leaf",
                "state": {
                  "type": "tag",
                  "state": {
                    "sortOrder": "alphabetical",
                    "useHierarchy": true
                  }
                }
              },
              {
                "id": "749b56e885e35232",
                "type": "leaf",
                "state": {
                  "type": "outline",
                  "state": {
                    "file": "Трекер дз типа Dataview.md"
                  }
                }
              },
              {
                "id": "1b2af26190b9ac15",
                "type": "leaf",
                "state": {
                  "type": "reminder-list",
                  "state": {}
                }
              },
              {
                "id": "b86ad3d79f053e1e",
                "type": "leaf",
                "state": {
                  "type": "graph-analysis",
                  "state": {}
                }
              },
              {
                "id": "57fe199be70459f3",
                "type": "leaf",
                "state": {
                  "type": "calendar",
                  "state": {}
                }
              },
              {
                "id": "47977c3483b6f1e7",
                "type": "leaf",
                "state": {
                  "type": "outgoing-link",
                  "state": {
                    "file": "Трекер дз типа Dataview.md",
                    "linksCollapsed": false,
                    "unlinkedCollapsed": true
                  }
                }
              },
              {
                "id": "ca489faa0f7ca06a",
                "type": "leaf",
                "state": {
                  "type": "graph-analysis",
                  "state": {}
                }
              }
            ],
            "currentTab": 7
          }
        ],
        "direction": "horizontal",
        "width": 300,
        "collapsed": true
      },
      "ribbon": {
        "mostRecentAction": ""
      },
      "active": "7e029e3749972bdf"
    },
    "Трекер задач": {
      "main": {
        "id": "5ae26ce8e2b562c7",
        "type": "split",
        "children": [
          {
            "id": "1861a15bad908535",
            "type": "tabs",
            "children": [
              {
                "id": "7e029e3749972bdf",
                "type": "leaf",
                "state": {
                  "type": "markdown",
                  "state": {
                    "file": "Трекер задач типа Dataview.md",
                    "mode": "preview",
                    "source": false
                  }
                }
              }
            ]
          }
        ],
        "direction": "vertical"
      },
      "left": {
        "id": "61229c666afdf99a",
        "type": "split",
        "children": [
          {
            "id": "5955efbc782b3e55",
            "type": "tabs",
            "children": [
              {
                "id": "b9e33b19b33c05ac",
                "type": "leaf",
                "state": {
                  "type": "file-explorer",
                  "state": {
                    "sortOrder": "alphabetical"
                  }
                }
              },
              {
                "id": "bca170b0cca2f811",
                "type": "leaf",
                "state": {
                  "type": "search",
                  "state": {
                    "query": "",
                    "matchingCase": false,
                    "explainSearch": false,
                    "collapseAll": false,
                    "extraContext": false,
                    "sortOrder": "alphabetical"
                  }
                }
              },
              {
                "id": "229efc9f9b61c200",
                "type": "leaf",
                "state": {
                  "type": "VIEW_TYPE_LONGFORM_EXPLORER",
                  "state": {}
                }
              }
            ]
          }
        ],
        "direction": "horizontal",
        "width": 300,
        "collapsed": true
      },
      "right": {
        "id": "5e788a432895cb8f",
        "type": "split",
        "children": [
          {
            "id": "fc7df006d817519b",
            "type": "tabs",
            "children": [
              {
                "id": "4b685679d6b99039",
                "type": "leaf",
                "state": {
                  "type": "backlink",
                  "state": {
                    "file": "Трекер задач типа Dataview.md",
                    "collapseAll": false,
                    "extraContext": false,
                    "sortOrder": "alphabetical",
                    "showSearch": false,
                    "searchQuery": "",
                    "backlinkCollapsed": false,
                    "unlinkedCollapsed": true
                  }
                }
              },
              {
                "id": "edb2972efb67f490",
                "type": "leaf",
                "state": {
                  "type": "tag",
                  "state": {
                    "sortOrder": "alphabetical",
                    "useHierarchy": true
                  }
                }
              },
              {
                "id": "749b56e885e35232",
                "type": "leaf",
                "state": {
                  "type": "outline",
                  "state": {
                    "file": "Трекер задач типа Dataview.md"
                  }
                }
              },
              {
                "id": "1b2af26190b9ac15",
                "type": "leaf",
                "state": {
                  "type": "reminder-list",
                  "state": {}
                }
              },
              {
                "id": "b86ad3d79f053e1e",
                "type": "leaf",
                "state": {
                  "type": "graph-analysis",
                  "state": {}
                }
              },
              {
                "id": "57fe199be70459f3",
                "type": "leaf",
                "state": {
                  "type": "calendar",
                  "state": {}
                }
              },
              {
                "id": "47977c3483b6f1e7",
                "type": "leaf",
                "state": {
                  "type": "outgoing-link",
                  "state": {
                    "file": "Трекер задач типа Dataview.md",
                    "linksCollapsed": false,
                    "unlinkedCollapsed": true
                  }
                }
              },
              {
                "id": "ca489faa0f7ca06a",
                "type": "leaf",
                "state": {
                  "type": "graph-analysis",
                  "state": {}
                }
              }
            ],
            "currentTab": 7
          }
        ],
        "direction": "horizontal",
        "width": 300,
        "collapsed": true
      },
      "ribbon": {
        "mostRecentAction": ""
      },
      "active": "7e029e3749972bdf"
    },
    "Входящие": {
      "main": {
        "id": "5ae26ce8e2b562c7",
        "type": "split",
        "children": [
          {
            "id": "1861a15bad908535",
            "type": "tabs",
            "children": [
              {
                "id": "43e15f05419a48d3",
                "type": "leaf",
                "state": {
                  "type": "empty",
                  "state": {}
                }
              }
            ]
          }
        ],
        "direction": "vertical"
      },
      "left": {
        "id": "61229c666afdf99a",
        "type": "split",
        "children": [
          {
            "id": "5955efbc782b3e55",
            "type": "tabs",
            "children": [
              {
                "id": "b9e33b19b33c05ac",
                "type": "leaf",
                "state": {
                  "type": "file-explorer",
                  "state": {
                    "sortOrder": "alphabetical"
                  }
                }
              },
              {
                "id": "bca170b0cca2f811",
                "type": "leaf",
                "state": {
                  "type": "search",
                  "state": {
                    "query": "tag:#Входящие",
                    "matchingCase": false,
                    "explainSearch": false,
                    "collapseAll": false,
                    "extraContext": false,
                    "sortOrder": "alphabetical"
                  }
                }
              },
              {
                "id": "229efc9f9b61c200",
                "type": "leaf",
                "state": {
                  "type": "VIEW_TYPE_LONGFORM_EXPLORER",
                  "state": {}
                }
              }
            ],
            "currentTab": 1
          }
        ],
        "direction": "horizontal",
        "width": 300
      },
      "right": {
        "id": "5e788a432895cb8f",
        "type": "split",
        "children": [
          {
            "id": "fc7df006d817519b",
            "type": "tabs",
            "children": [
              {
                "id": "4b685679d6b99039",
                "type": "leaf",
                "state": {
                  "type": "backlink",
                  "state": {
                    "collapseAll": false,
                    "extraContext": false,
                    "sortOrder": "alphabetical",
                    "showSearch": false,
                    "searchQuery": "",
                    "backlinkCollapsed": false,
                    "unlinkedCollapsed": true
                  }
                }
              },
              {
                "id": "edb2972efb67f490",
                "type": "leaf",
                "state": {
                  "type": "tag",
                  "state": {
                    "sortOrder": "alphabetical",
                    "useHierarchy": true
                  }
                }
              },
              {
                "id": "749b56e885e35232",
                "type": "leaf",
                "state": {
                  "type": "outline",
                  "state": {}
                }
              },
              {
                "id": "1b2af26190b9ac15",
                "type": "leaf",
                "state": {
                  "type": "reminder-list",
                  "state": {}
                }
              },
              {
                "id": "b86ad3d79f053e1e",
                "type": "leaf",
                "state": {
                  "type": "graph-analysis",
                  "state": {}
                }
              },
              {
                "id": "57fe199be70459f3",
                "type": "leaf",
                "state": {
                  "type": "calendar",
                  "state": {}
                }
              },
              {
                "id": "47977c3483b6f1e7",
                "type": "leaf",
                "state": {
                  "type": "outgoing-link",
                  "state": {
                    "linksCollapsed": false,
                    "unlinkedCollapsed": true
                  }
                }
              },
              {
                "id": "ca489faa0f7ca06a",
                "type": "leaf",
                "state": {
                  "type": "graph-analysis",
                  "state": {}
                }
              }
            ],
            "currentTab": 7
          }
        ],
        "direction": "horizontal",
        "width": 300,
        "collapsed": true
      },
      "ribbon": {
        "mostRecentAction": ""
      },
      "active": "bca170b0cca2f811"
    },
    "Задачи на сегодня": {
      "main": {
        "id": "5ae26ce8e2b562c7",
        "type": "split",
        "children": [
          {
            "id": "0e139be75db8e21e",
            "type": "tabs",
            "children": [
              {
                "id": "9af2bc51929671a7",
                "type": "leaf",
                "state": {
                  "type": "empty",
                  "state": {}
                }
              }
            ]
          }
        ],
        "direction": "vertical"
      },
      "left": {
        "id": "61229c666afdf99a",
        "type": "split",
        "children": [
          {
            "id": "5955efbc782b3e55",
            "type": "tabs",
            "children": [
              {
                "id": "b9e33b19b33c05ac",
                "type": "leaf",
                "state": {
                  "type": "file-explorer",
                  "state": {
                    "sortOrder": "alphabetical"
                  }
                }
              },
              {
                "id": "bca170b0cca2f811",
                "type": "leaf",
                "state": {
                  "type": "search",
                  "state": {
                    "query": "",
                    "matchingCase": false,
                    "explainSearch": false,
                    "collapseAll": false,
                    "extraContext": false,
                    "sortOrder": "alphabetical"
                  }
                }
              },
              {
                "id": "229efc9f9b61c200",
                "type": "leaf",
                "state": {
                  "type": "VIEW_TYPE_LONGFORM_EXPLORER",
                  "state": {}
                }
              }
            ]
          }
        ],
        "direction": "horizontal",
        "width": 300,
        "collapsed": true
      },
      "right": {
        "id": "5e788a432895cb8f",
        "type": "split",
        "children": [
          {
            "id": "fc7df006d817519b",
            "type": "tabs",
            "children": [
              {
                "id": "4b685679d6b99039",
                "type": "leaf",
                "state": {
                  "type": "backlink",
                  "state": {
                    "collapseAll": false,
                    "extraContext": false,
                    "sortOrder": "alphabetical",
                    "showSearch": false,
                    "searchQuery": "",
                    "backlinkCollapsed": false,
                    "unlinkedCollapsed": true
                  }
                }
              },
              {
                "id": "edb2972efb67f490",
                "type": "leaf",
                "state": {
                  "type": "tag",
                  "state": {
                    "sortOrder": "alphabetical",
                    "useHierarchy": true
                  }
                }
              },
              {
                "id": "749b56e885e35232",
                "type": "leaf",
                "state": {
                  "type": "outline",
                  "state": {}
                }
              },
              {
                "id": "1b2af26190b9ac15",
                "type": "leaf",
                "state": {
                  "type": "reminder-list",
                  "state": {}
                }
              },
              {
                "id": "b86ad3d79f053e1e",
                "type": "leaf",
                "state": {
                  "type": "graph-analysis",
                  "state": {}
                }
              },
              {
                "id": "57fe199be70459f3",
                "type": "leaf",
                "state": {
                  "type": "calendar",
                  "state": {}
                }
              },
              {
                "id": "47977c3483b6f1e7",
                "type": "leaf",
                "state": {
                  "type": "outgoing-link",
                  "state": {
                    "linksCollapsed": false,
                    "unlinkedCollapsed": true
                  }
                }
              },
              {
                "id": "ca489faa0f7ca06a",
                "type": "leaf",
                "state": {
                  "type": "graph-analysis",
                  "state": {}
                }
              }
            ],
            "currentTab": 5
          }
        ],
        "direction": "horizontal",
        "width": 300
      },
      "active": "9af2bc51929671a7"
    },
    "Задачи на сегодня и активное окно - 2 экрана": {
      "main": {
        "id": "5ae26ce8e2b562c7",
        "type": "split",
        "children": [
          {
            "id": "39fd5f678dab0f1e",
            "type": "tabs",
            "children": [
              {
                "id": "ac7250d8c90b4598",
                "type": "leaf",
                "state": {
                  "type": "markdown",
                  "state": {
                    "file": "__КК Менеджмент информации.md",
                    "mode": "preview",
                    "source": false
                  }
                }
              }
            ]
          }
        ],
        "direction": "vertical"
      },
      "left": {
        "id": "61229c666afdf99a",
        "type": "split",
        "children": [
          {
            "id": "5955efbc782b3e55",
            "type": "tabs",
            "children": [
              {
                "id": "b9e33b19b33c05ac",
                "type": "leaf",
                "state": {
                  "type": "file-explorer",
                  "state": {
                    "sortOrder": "alphabetical"
                  }
                }
              },
              {
                "id": "bca170b0cca2f811",
                "type": "leaf",
                "state": {
                  "type": "search",
                  "state": {
                    "query": "",
                    "matchingCase": false,
                    "explainSearch": false,
                    "collapseAll": false,
                    "extraContext": false,
                    "sortOrder": "alphabetical"
                  }
                }
              },
              {
                "id": "229efc9f9b61c200",
                "type": "leaf",
                "state": {
                  "type": "VIEW_TYPE_LONGFORM_EXPLORER",
                  "state": {}
                }
              }
            ]
          }
        ],
        "direction": "horizontal",
        "width": 300,
        "collapsed": true
      },
      "right": {
        "id": "5e788a432895cb8f",
        "type": "split",
        "children": [
          {
            "id": "fc7df006d817519b",
            "type": "tabs",
            "children": [
              {
                "id": "4b685679d6b99039",
                "type": "leaf",
                "state": {
                  "type": "backlink",
                  "state": {
                    "file": "__КК Менеджмент информации.md",
                    "collapseAll": false,
                    "extraContext": false,
                    "sortOrder": "alphabetical",
                    "showSearch": false,
                    "searchQuery": "",
                    "backlinkCollapsed": false,
                    "unlinkedCollapsed": true
                  }
                }
              },
              {
                "id": "edb2972efb67f490",
                "type": "leaf",
                "state": {
                  "type": "tag",
                  "state": {
                    "sortOrder": "alphabetical",
                    "useHierarchy": true
                  }
                }
              },
              {
                "id": "749b56e885e35232",
                "type": "leaf",
                "state": {
                  "type": "outline",
                  "state": {
                    "file": "__КК Менеджмент информации.md"
                  }
                }
              },
              {
                "id": "1b2af26190b9ac15",
                "type": "leaf",
                "state": {
                  "type": "reminder-list",
                  "state": {}
                }
              },
              {
                "id": "b86ad3d79f053e1e",
                "type": "leaf",
                "state": {
                  "type": "graph-analysis",
                  "state": {}
                }
              },
              {
                "id": "47977c3483b6f1e7",
                "type": "leaf",
                "state": {
                  "type": "outgoing-link",
                  "state": {
                    "file": "__КК Менеджмент информации.md",
                    "linksCollapsed": false,
                    "unlinkedCollapsed": true
                  }
                }
              },
              {
                "id": "ca489faa0f7ca06a",
                "type": "leaf",
                "state": {
                  "type": "graph-analysis",
                  "state": {}
                }
              }
            ],
            "currentTab": 4
          }
        ],
        "direction": "horizontal",
        "width": 300
      },
      "ribbon": {
        "mostRecentAction": ""
      },
      "floating": {
        "id": "5eabc3a1473ffe1e",
        "type": "floating",
        "children": [
          {
            "id": "2a790e2fd69ab78f",
            "type": "window",
            "children": [
              {
                "id": "c6fc9a93ef5516d1",
                "type": "tabs",
                "dimension": 22.900158478605388,
                "children": [
                  {
                    "id": "57fe199be70459f3",
                    "type": "leaf",
                    "state": {
                      "type": "calendar",
                      "state": {}
                    }
                  }
                ]
              },
              {
                "id": "0882422e6ef22e84",
                "type": "tabs",
                "dimension": 77.09984152139461,
                "children": [
                  {
                    "id": "9af2bc51929671a7",
                    "type": "leaf",
                    "state": {
                      "type": "markdown",
                      "state": {
                        "file": "2022-10-21.md",
                        "mode": "preview",
                        "source": false
                      }
                    }
                  }
                ]
              }
            ],
            "direction": "vertical",
            "x": 270,
            "y": 61,
            "width": 740,
            "height": 1013,
            "maximize": true,
            "zoom": 0
          }
        ]
      },
      "active": "ac7250d8c90b4598"
    }
  },
  "active": "Трекер задач"
}