{
  "app:go-back": [
    {
      "modifiers": [
        "Alt",
        "Mod"
      ],
      "key": "Z"
    }
  ],
  "text-snippets-obsidian:text-snippets": [
    {
      "modifiers": [
        "Mod"
      ],
      "key": "Tab"
    }
  ]
}