{
  "version": 2,
  "defaultNote": "_КК Главный Узел",
  "workspace": "Home",
  "workspaceEnabled": false,
  "hasRibbonIcon": true,
  "openMode": "Replace all open notes",
  "view": "Default view",
  "refreshDataview": false
}