{
  "snippets_file": "cos : \\cos\nsin : \\sin\nint : \\int\\limits_{a}^{b} x, dx\nfrac : \\frac{$end$}{}\nsqrt : \\sqrt{$end$}\nsqrtn : \\sqrt[n$end$]{}\nsum  : \\sum_{i=1}^{10$end$} t_i\na : \\alpha\nA : \\Alpha\nb : \\beta\nB : \\Beta\nd : \\Delta\nvec : \\vec{$end$}\novervec : \\overrightarrow{$end$}\n",
  "snippets": [
    "cos : \\cos",
    "sin : \\sin",
    "int : \\int\\limits_{a}^{b} x, dx",
    "frac : \\frac{$end$}{}",
    "sqrt : \\sqrt{$end$}",
    "sqrtn : \\sqrt[n$end$]{}",
    "sum  : \\sum_{i=1}^{10$end$} t_i",
    "a : \\alpha",
    "A : \\Alpha",
    "b : \\beta",
    "B : \\Beta",
    "d : \\Delta",
    "vec : \\vec{$end$}",
    "overvec : \\overrightarrow{$end$}"
  ],
  "endSymbol": "$end$",
  "newlineSymbol": "$nl$",
  "stopSymbol": "$tb$",
  "pasteSymbol": "$pst$",
  "useTab": true,
  "useSpace": false,
  "wordDelimiters": "$()[]{}<>,.!?;:'\"\\/",
  "isWYSIWYG": true
}