{
  "collapse-filter": true,
  "search": "",
  "showTags": false,
  "showAttachments": false,
  "hideUnresolved": false,
  "showOrphans": true,
  "collapse-color-groups": true,
  "colorGroups": [
    {
      "query": "tag: Копирайтинг",
      "color": {
        "a": 1,
        "rgb": 14701138
      }
    },
    {
      "query": "",
      "color": {
        "a": 1,
        "rgb": 14725458
      }
    }
  ],
  "collapse-display": true,
  "showArrow": false,
  "textFadeMultiplier": 0.6,
  "nodeSizeMultiplier": 1.84638429752066,
  "lineSizeMultiplier": 0.833987603305785,
  "collapse-forces": true,
  "centerStrength": 0.807303807303807,
  "repelStrength": 20,
  "linkStrength": 0.682983682983683,
  "linkDistance": 30,
  "scale": 0.04662450680080045,
  "close": false
}