{
  "main": {
    "id": "9f5af77fedca86a5",
    "type": "split",
    "children": [
      {
        "id": "d84eb61e80b327f7",
        "type": "tabs",
        "children": [
          {
            "id": "c47833f6e9b64eee",
            "type": "leaf",
            "state": {
              "type": "markdown",
              "state": {
                "file": "Random Adventure/Генерация персонажей.md",
                "mode": "source",
                "backlinks": false,
                "source": false
              }
            }
          },
          {
            "id": "f9d2ce7538cc2f61",
            "type": "leaf",
            "state": {
              "type": "markdown",
              "state": {
                "file": "Random Adventure/Статусы известности/Статусы известности.md",
                "mode": "source",
                "backlinks": false,
                "source": false
              }
            }
          }
        ]
      }
    ],
    "direction": "vertical"
  },
  "left": {
    "id": "c7f1e81ad68de762",
    "type": "split",
    "children": [
      {
        "id": "9cf144c376530165",
        "type": "tabs",
        "children": [
          {
            "id": "a167b8df3189e5fb",
            "type": "leaf",
            "state": {
              "type": "file-explorer",
              "state": {
                "sortOrder": "alphabetical"
              }
            }
          },
          {
            "id": "7684dd0194630168",
            "type": "leaf",
            "state": {
              "type": "search",
              "state": {
                "query": "",
                "matchingCase": false,
                "explainSearch": false,
                "collapseAll": false,
                "extraContext": false,
                "sortOrder": "alphabetical"
              }
            }
          },
          {
            "id": "19c36eb1abf6a0ec",
            "type": "leaf",
            "state": {
              "type": "VIEW_TYPE_LONGFORM_EXPLORER",
              "state": {}
            }
          }
        ]
      }
    ],
    "direction": "horizontal",
    "width": 300,
    "collapsed": true
  },
  "right": {
    "id": "1bfb572a9ceacbf1",
    "type": "split",
    "children": [
      {
        "id": "28c9d094878b1984",
        "type": "tabs",
        "children": [
          {
            "id": "aa258f476b35e4d3",
            "type": "leaf",
            "state": {
              "type": "calendar",
              "state": {}
            }
          },
          {
            "id": "1a42e6f6a82f426c",
            "type": "leaf",
            "state": {
              "type": "backlink",
              "state": {
                "file": "Random Adventure/Генерация персонажей.md",
                "collapseAll": false,
                "extraContext": false,
                "sortOrder": "alphabetical",
                "showSearch": false,
                "searchQuery": "",
                "backlinkCollapsed": false,
                "unlinkedCollapsed": true
              }
            }
          },
          {
            "id": "6f2bef225bf79317",
            "type": "leaf",
            "state": {
              "type": "outgoing-link",
              "state": {
                "file": "Random Adventure/Генерация персонажей.md",
                "linksCollapsed": false,
                "unlinkedCollapsed": true
              }
            }
          },
          {
            "id": "198ae33167112c5f",
            "type": "leaf",
            "state": {
              "type": "tag",
              "state": {
                "sortOrder": "frequency",
                "useHierarchy": true
              }
            }
          },
          {
            "id": "b93e968e1479cb20",
            "type": "leaf",
            "state": {
              "type": "outline",
              "state": {
                "file": "Random Adventure/Генерация персонажей.md"
              }
            }
          },
          {
            "id": "4effd31dc8d6faf4",
            "type": "leaf",
            "state": {
              "type": "reminder-list",
              "state": {}
            }
          },
          {
            "id": "abd1ce36f4048ea6",
            "type": "leaf",
            "state": {
              "type": "graph-analysis",
              "state": {}
            }
          },
          {
            "id": "06a19404d8a814ad",
            "type": "leaf",
            "state": {
              "type": "juggl_nodes",
              "state": {}
            }
          },
          {
            "id": "dc3cb5defc8677ed",
            "type": "leaf",
            "state": {
              "type": "juggl_style",
              "state": {}
            }
          },
          {
            "id": "2984c92157f61238",
            "type": "leaf",
            "state": {
              "type": "Strange New Worlds",
              "state": {}
            }
          }
        ]
      }
    ],
    "direction": "horizontal",
    "width": 300,
    "collapsed": true
  },
  "left-ribbon": {
    "hiddenItems": {
      "table-editor-obsidian:Advanced Tables Toolbar": false,
      "obsidian-excalidraw-plugin:New Excalidraw drawing": false,
      "homepage:Open homepage": false,
      "obsidian-journey-plugin:Find Journey": false,
      "juggl:Juggl global graph": false,
      "obsidian-leaflet-plugin:Open Leaflet Map": false,
      "open-vscode:VSCode": false,
      "obsidian-extract-pdf-highlights:PDF Highlights": false,
      "obsidian-projects:Open projects": false,
      "smart-random-note:Open Random Note from Search": false,
      "templater-obsidian:Templater": false,
      "switcher:Open quick switcher": false,
      "graph:Open graph view": false,
      "canvas:Create new canvas": false,
      "daily-notes:Open today's daily note": false,
      "templates:Insert template": false,
      "command-palette:Open command palette": false,
      "markdown-importer:Open format converter": false,
      "workspaces:Manage workspace layouts": false
    }
  },
  "active": "c47833f6e9b64eee",
  "lastOpenFiles": [
    "Умения.md",
    "Random Adventure/Генерация персонажей.md",
    "Random Adventure/Знания.md",
    "Random Adventure/Untitled Diagram.svg",
    "Excalidraw/Сферы деятельности.md",
    "Random Adventure/Статусы здоровья/Статусы здоровья.md",
    "Random Adventure/Статусы здоровья/Перелом.md",
    "Random Adventure/Статусы здоровья/Без руки.md",
    "Random Adventure/Статусы здоровья/Болен(слабо, серьезно, хронически, приглушенно).md",
    "Random Adventure/Статусы известности/Статусы известности.md"
  ]
}