{
  "inboxDir": "ReadItLater inbox",
  "assetsDir": "ReadItLater Inbox/assets",
  "openNewNote": true,
  "youtubeNoteTitle": "Youtube - %title%",
  "youtubeNote": "[[ReadItLater]] [[Youtube]]\n\n# [%videoTitle%](%videoURL%)\n\n%videoPlayer%",
  "twitterNoteTitle": "Tweet from %tweetAuthorName% (%date%)",
  "twitterNote": "[[ReadItLater]] [[Tweet]]\n\n# [%tweetAuthorName%](%tweetURL%)\n\n%tweetContent%",
  "parseableArticleNoteTitle": "%title%",
  "parsableArticleNote": "[[ReadItLater]] [[Article]]\n\n# [%articleTitle%](%articleURL%)\n\n%articleContent%",
  "notParseableArticleNoteTitle": "Article %date%",
  "notParsableArticleNote": "[[ReadItLater]] [[Article]]\n\n[%articleURL%](%articleURL%)",
  "textSnippetNoteTitle": "Notice %date%",
  "textSnippetNote": "[[ReadItLater]] [[Textsnippet]]\n\n%content%",
  "downloadImages": true,
  "dateTitleFmt": "YYYY-MM-DD HH-mm-ss",
  "dateContentFmt": "YYYY-MM-DD"
}