[
  "homepage",
  "table-editor-obsidian",
  "obsidian-admonition",
  "obsidian-annotator",
  "buttons",
  "code-block-copy",
  "dataview",
  "obsidian-dialogue-plugin",
  "cm-editor-syntax-highlight-obsidian",
  "obsidian-enhancing-mindmap",
  "obsidian-excalidraw-plugin",
  "excalibrain",
  "obsidian-latex",
  "graph-analysis",
  "heatmap-calendar",
  "obsidian-hover-editor",
  "obsidian-kanban",
  "obsidian-living-graph",
  "longform",
  "media-extended",
  "music-code-blocks",
  "obsidian-leaflet-plugin",
  "templater-obsidian",
  "text-snippets-obsidian",
  "obsidian-vault-changelog"
]