{
  "choices": [
    {
      "id": "c173806d-eb18-4b5a-8dc2-8c385983b88e",
      "name": "Insert date and time",
      "type": "Multi",
      "command": false,
      "choices": [],
      "collapsed": false
    },
    {
      "id": "8a9f17af-9872-4211-bc03-d692f5f89acd",
      "name": "Capture - Insert date and time",
      "type": "Capture",
      "command": true,
      "appendLink": false,
      "captureTo": "",
      "captureToActiveFile": true,
      "createFileIfItDoesntExist": {
        "enabled": false,
        "createWithTemplate": false,
        "template": ""
      },
      "format": {
        "enabled": true,
        "format": "**{{DATE:YYYY-MM-DD HH:mm}}**. "
      },
      "insertAfter": {
        "enabled": false,
        "after": "",
        "insertAtEnd": false,
        "createIfNotFound": false,
        "createIfNotFoundLocation": "top"
      },
      "prepend": false,
      "task": false,
      "openFileInNewTab": {
        "enabled": false,
        "direction": "vertical",
        "focus": true
      },
      "openFile": false,
      "openFileInMode": "default"
    },
    {
      "id": "90ee5405-325d-47d2-8c3d-4659593c0a2a",
      "name": "Macro - Open file after creating alias for bench",
      "type": "Macro",
      "command": true,
      "macroId": "d44290e6-4025-4696-92fd-07e510583e01"
    }
  ],
  "macros": [
    {
      "name": "Macro - insert date and time",
      "id": "b916cb98-2f45-4014-84d1-c98d3fdeabd5",
      "commands": [
        {
          "name": "Templates: Insert current date",
          "type": "Obsidian",
          "id": "0f3dd2ca-61a9-4d28-9322-c0721458ac80",
          "commandId": "insert-current-date"
        },
        {
          "name": "Templates: Insert current time",
          "type": "Obsidian",
          "id": "01f380a7-1cbc-41e2-bc21-4d79124fe684",
          "commandId": "insert-current-time"
        }
      ],
      "runOnStartup": false
    },
    {
      "name": "Open file after creating alias for bench",
      "id": "d44290e6-4025-4696-92fd-07e510583e01",
      "commands": [
        {
          "name": "Capture - Сreate alias for bench",
          "type": "NestedChoice",
          "id": "3e4f1816-15be-4bd5-9902-2ac825a505fd",
          "choice": {
            "id": "7a91ba2b-5a60-45f0-8708-0fa4e2c278ab",
            "name": "Capture - Сreate alias for bench",
            "type": "Capture",
            "command": false,
            "appendLink": false,
            "captureTo": "Бенч.md",
            "captureToActiveFile": false,
            "createFileIfItDoesntExist": {
              "enabled": false,
              "createWithTemplate": false,
              "template": ""
            },
            "format": {
              "enabled": true,
              "format": "---\nalias: [\",tyx\", \"<tyx\"]\n---"
            },
            "insertAfter": {
              "enabled": false,
              "after": "",
              "insertAtEnd": false,
              "createIfNotFound": false,
              "createIfNotFoundLocation": "top"
            },
            "prepend": false,
            "task": false,
            "openFileInNewTab": {
              "enabled": false,
              "direction": "vertical",
              "focus": true
            },
            "openFile": false,
            "openFileInMode": "default"
          }
        },
        {
          "name": "Quick switcher: Open quick switcher",
          "type": "Obsidian",
          "id": "45ba1c62-c803-4750-af70-cb01a7ae42ec",
          "commandId": "switcher:open"
        }
      ],
      "runOnStartup": false
    }
  ],
  "inputPrompt": "multi-line"
}