{
  "mapMarkers": [
    {
      "id": "leaflet-map1",
      "lastAccessed": 1654511041308,
      "markers": [
        {
          "id": "ID_384bb86a6a1b",
          "type": "default",
          "loc": [
            -0.57183837890625,
            1.32952880859375
          ],
          "layer": "Pasted%20image%2020220606131654.png",
          "mutable": true,
          "command": false,
          "percent": null,
          "description": "init vars",
          "minZoom": null,
          "maxZoom": null,
          "tooltip": "hover"
        },
        {
          "id": "ID_79e96a5978eb",
          "type": "default",
          "loc": [
            -0.818359375,
            1.328125
          ],
          "layer": "Pasted%20image%2020220606131654.png",
          "mutable": true,
          "command": false,
          "percent": [
            0.6071428571428571,
            0.13293147208121828
          ],
          "description": "init vars",
          "minZoom": null,
          "maxZoom": null,
          "tooltip": "hover"
        }
      ],
      "overlays": [],
      "shapes": [
        {
          "type": "rectangle",
          "color": "#ff0000",
          "vertices": [
            {
              "lat": -0.024200439453125,
              "lng": 1.196990966796875,
              "id": "ID_e8db385a1a2a",
              "targets": {
                "vertexIds": []
              }
            },
            {
              "lat": -0.024200439453125,
              "lng": 1.757537841796875,
              "id": "ID_caea987b3b19",
              "targets": {
                "vertexIds": []
              }
            },
            {
              "lat": -0.073028564453125,
              "lng": 1.757537841796875,
              "id": "ID_3b0a19cb88c8",
              "targets": {
                "vertexIds": []
              }
            },
            {
              "lat": -0.073028564453125,
              "lng": 1.196990966796875,
              "id": "ID_ebfba98938eb",
              "targets": {
                "vertexIds": []
              }
            }
          ]
        },
        {
          "type": "rectangle",
          "color": "#2509f6",
          "vertices": [
            {
              "lat": -0.07574462890625,
              "lng": 0.71820068359375,
              "id": "ID_fac99bd9f90b",
              "targets": {
                "vertexIds": []
              }
            },
            {
              "lat": -0.07574462890625,
              "lng": 1.38421630859375,
              "id": "ID_69485a28ea08",
              "targets": {
                "vertexIds": []
              }
            },
            {
              "lat": -0.62261962890625,
              "lng": 1.38421630859375,
              "id": "ID_d8384b8b8b2a",
              "targets": {
                "vertexIds": []
              }
            },
            {
              "lat": -0.62261962890625,
              "lng": 0.71820068359375,
              "id": "ID_69fae96b3878",
              "targets": {
                "vertexIds": []
              }
            }
          ]
        },
        {
          "type": "rectangle",
          "color": "#2509f6",
          "vertices": [
            {
              "lat": -0.72222900390625,
              "lng": 0.73577880859375,
              "id": "ID_6aa84bebf998",
              "targets": {
                "vertexIds": []
              }
            },
            {
              "lat": -0.72222900390625,
              "lng": 1.36859130859375,
              "id": "ID_4af81a8aabc9",
              "targets": {
                "vertexIds": []
              }
            },
            {
              "lat": -0.85894775390625,
              "lng": 1.36859130859375,
              "id": "ID_2898e87aab09",
              "targets": {
                "vertexIds": []
              }
            },
            {
              "lat": -0.85894775390625,
              "lng": 0.73577880859375,
              "id": "ID_ebe98a5bf979",
              "targets": {
                "vertexIds": []
              }
            }
          ]
        }
      ],
      "files": [
        "Моя идея реализации потенциальных полей в качестве избегания препятствий.md"
      ]
    }
  ],
  "defaultMarker": {
    "type": "default",
    "iconName": "map-marker",
    "color": "#dddddd",
    "transform": {
      "size": 6,
      "x": 0,
      "y": -2
    }
  },
  "markerIcons": [],
  "color": "#dddddd",
  "lat": 39.983334,
  "long": -82.98333,
  "notePreview": false,
  "layerMarkers": true,
  "previousVersion": "5.0.3",
  "version": {
    "major": 5,
    "minor": 0,
    "patch": 3
  },
  "warnedAboutMapMarker": false,
  "copyOnClick": false,
  "displayMarkerTooltips": "hover",
  "displayOverlayTooltips": true,
  "configDirectory": null,
  "mapViewEnabled": true,
  "mapViewParameters": {},
  "enableDraw": true,
  "defaultUnitType": "imperial",
  "defaultTile": "https://stamen-tiles.a.ssl.fastly.net/terrain/{z}/{x}/{y}.png",
  "defaultTileDark": "https://stamen-tiles.a.ssl.fastly.net/terrain/{z}/{x}/{y}.png",
  "defaultAttribution": "Map tiles by <a href=\"http://stamen.com\">Stamen Design</a>, under <a href=\"http://creativecommons.org/licenses/by/3.0\">CC BY 3.0</a>. Data by <a href=\"http://openstreetmap.org\">OpenStreetMap</a>, under <a href=\"http://www.openstreetmap.org/copyright\">ODbL</a>."
}